{
"frames": {
	"SmallMarioRun_1.png": {	"x":16, "y":17, "w":13, "h":16, "sw":13, "sh":16},
	"SmallMarioRun_2.png": {	"x":17, "y":0, "w":11, "h":16, "sw":11, "sh":16},
	"SmallMarioRun_3.png": {	"x":0, "y":17, "w":15, "h":16, "sw":15, "sh":16},
	"SmallMarioRun_4.png": {	"x":15, "y":34, "w":13, "h":16, "sw":13, "sh":16},
	"SmallMarioStand.png": {	"x":29, "y":34, "w":12, "h":16, "sw":12, "sh":16},
	"SmallMarioDead.png": {	"x":0, "y":34, "w":14, "h":16, "sw":14, "sh":16},
	"SmallMarioJump.png": {	"x":0, "y":0, "w":16, "h":16, "sw":16, "sh":16}

}
}