{
"frames": {
	"Coat.PNG": {	"x":81, "y":81, "w":80, "h":80, "sw":80, "sh":80},
	"Dirt.PNG": {	"x":162, "y":162, "w":80, "h":80, "sw":80, "sh":80},
	"Glass.PNG": {	"x":162, "y":81, "w":80, "h":80, "sw":80, "sh":80},
	"Gold.PNG": {	"x":162, "y":0, "w":80, "h":80, "sw":80, "sh":80},
	"Grass.PNG": {	"x":81, "y":243, "w":80, "h":80, "sw":80, "sh":80},
	"Leaves.PNG": {	"x":81, "y":162, "w":80, "h":80, "sw":80, "sh":80},
	"Redstone.PNG": {	"x":162, "y":243, "w":80, "h":80, "sw":80, "sh":80},
	"Sand.PNG": {	"x":81, "y":0, "w":80, "h":80, "sw":80, "sh":80},
	"Stone.PNG": {	"x":0, "y":243, "w":80, "h":80, "sw":80, "sh":80},
	"Tnt.PNG": {	"x":0, "y":162, "w":80, "h":80, "sw":80, "sh":80},
	"Water.PNG": {	"x":0, "y":81, "w":80, "h":80, "sw":80, "sh":80},
	"Wood.PNG": {	"x":0, "y":0, "w":80, "h":80, "sw":80, "sh":80}

}
}