^D:\GITPROJECT\STDIO_GAME\LIB\STDIO-ENGINE\SRC\ANIMATION.CPP
/c /I"C:\PROGRAM FILES (X86)\VISUAL LEAK DETECTOR\INCLUDE" /ZI /nologo /W3 /WX- /diagnostics:classic /sdl /Od /Oy- /D _MBCS /Gm /EHsc /RTC1 /MDd /GS /fp:precise /Zc:wchar_t /Zc:forScope /Zc:inline /Fo"DEBUG\\" /Fd"DEBUG\ENGINE.PDB" /Gd /TP /analyze- D:\GITPROJECT\STDIO_GAME\LIB\STDIO-ENGINE\SRC\ANIMATION.CPP
^D:\GITPROJECT\STDIO_GAME\LIB\STDIO-ENGINE\SRC\APPLICATION.CPP
/c /I"C:\PROGRAM FILES (X86)\VISUAL LEAK DETECTOR\INCLUDE" /ZI /nologo /W3 /WX- /diagnostics:classic /sdl /Od /Oy- /D _MBCS /Gm /EHsc /RTC1 /MDd /GS /fp:precise /Zc:wchar_t /Zc:forScope /Zc:inline /Fo"DEBUG\\" /Fd"DEBUG\ENGINE.PDB" /Gd /TP /analyze- D:\GITPROJECT\STDIO_GAME\LIB\STDIO-ENGINE\SRC\APPLICATION.CPP
^D:\GITPROJECT\STDIO_GAME\LIB\STDIO-ENGINE\SRC\AUDIOMANAGER.CPP
/c /I"C:\PROGRAM FILES (X86)\VISUAL LEAK DETECTOR\INCLUDE" /ZI /nologo /W3 /WX- /diagnostics:classic /sdl /Od /Oy- /D _MBCS /Gm /EHsc /RTC1 /MDd /GS /fp:precise /Zc:wchar_t /Zc:forScope /Zc:inline /Fo"DEBUG\\" /Fd"DEBUG\ENGINE.PDB" /Gd /TP /analyze- D:\GITPROJECT\STDIO_GAME\LIB\STDIO-ENGINE\SRC\AUDIOMANAGER.CPP
^D:\GITPROJECT\STDIO_GAME\LIB\STDIO-ENGINE\SRC\BUTTON.CPP
/c /I"C:\PROGRAM FILES (X86)\VISUAL LEAK DETECTOR\INCLUDE" /ZI /nologo /W3 /WX- /diagnostics:classic /sdl /Od /Oy- /D _MBCS /Gm /EHsc /RTC1 /MDd /GS /fp:precise /Zc:wchar_t /Zc:forScope /Zc:inline /Fo"DEBUG\\" /Fd"DEBUG\ENGINE.PDB" /Gd /TP /analyze- D:\GITPROJECT\STDIO_GAME\LIB\STDIO-ENGINE\SRC\BUTTON.CPP
^D:\GITPROJECT\STDIO_GAME\LIB\STDIO-ENGINE\SRC\CAMERAMANAGER.CPP
/c /I"C:\PROGRAM FILES (X86)\VISUAL LEAK DETECTOR\INCLUDE" /ZI /nologo /W3 /WX- /diagnostics:classic /sdl /Od /Oy- /D _MBCS /Gm /EHsc /RTC1 /MDd /GS /fp:precise /Zc:wchar_t /Zc:forScope /Zc:inline /Fo"DEBUG\\" /Fd"DEBUG\ENGINE.PDB" /Gd /TP /analyze- D:\GITPROJECT\STDIO_GAME\LIB\STDIO-ENGINE\SRC\CAMERAMANAGER.CPP
^D:\GITPROJECT\STDIO_GAME\LIB\STDIO-ENGINE\SRC\GRAPHICMANAGER.CPP
/c /I"C:\PROGRAM FILES (X86)\VISUAL LEAK DETECTOR\INCLUDE" /ZI /nologo /W3 /WX- /diagnostics:classic /sdl /Od /Oy- /D _MBCS /Gm /EHsc /RTC1 /MDd /GS /fp:precise /Zc:wchar_t /Zc:forScope /Zc:inline /Fo"DEBUG\\" /Fd"DEBUG\ENGINE.PDB" /Gd /TP /analyze- D:\GITPROJECT\STDIO_GAME\LIB\STDIO-ENGINE\SRC\GRAPHICMANAGER.CPP
^D:\GITPROJECT\STDIO_GAME\LIB\STDIO-ENGINE\SRC\INPUTMANAGER.CPP
/c /I"C:\PROGRAM FILES (X86)\VISUAL LEAK DETECTOR\INCLUDE" /ZI /nologo /W3 /WX- /diagnostics:classic /sdl /Od /Oy- /D _MBCS /Gm /EHsc /RTC1 /MDd /GS /fp:precise /Zc:wchar_t /Zc:forScope /Zc:inline /Fo"DEBUG\\" /Fd"DEBUG\ENGINE.PDB" /Gd /TP /analyze- D:\GITPROJECT\STDIO_GAME\LIB\STDIO-ENGINE\SRC\INPUTMANAGER.CPP
^D:\GITPROJECT\STDIO_GAME\LIB\STDIO-ENGINE\SRC\SCENE.CPP
/c /I"C:\PROGRAM FILES (X86)\VISUAL LEAK DETECTOR\INCLUDE" /ZI /nologo /W3 /WX- /diagnostics:classic /sdl /Od /Oy- /D _MBCS /Gm /EHsc /RTC1 /MDd /GS /fp:precise /Zc:wchar_t /Zc:forScope /Zc:inline /Fo"DEBUG\\" /Fd"DEBUG\ENGINE.PDB" /Gd /TP /analyze- D:\GITPROJECT\STDIO_GAME\LIB\STDIO-ENGINE\SRC\SCENE.CPP
^D:\GITPROJECT\STDIO_GAME\LIB\STDIO-ENGINE\SRC\SCENEMANAGER.CPP
/c /I"C:\PROGRAM FILES (X86)\VISUAL LEAK DETECTOR\INCLUDE" /ZI /nologo /W3 /WX- /diagnostics:classic /sdl /Od /Oy- /D _MBCS /Gm /EHsc /RTC1 /MDd /GS /fp:precise /Zc:wchar_t /Zc:forScope /Zc:inline /Fo"DEBUG\\" /Fd"DEBUG\ENGINE.PDB" /Gd /TP /analyze- D:\GITPROJECT\STDIO_GAME\LIB\STDIO-ENGINE\SRC\SCENEMANAGER.CPP
^D:\GITPROJECT\STDIO_GAME\LIB\STDIO-ENGINE\SRC\SPRITE.CPP
/c /I"C:\PROGRAM FILES (X86)\VISUAL LEAK DETECTOR\INCLUDE" /ZI /nologo /W3 /WX- /diagnostics:classic /sdl /Od /Oy- /D _MBCS /Gm /EHsc /RTC1 /MDd /GS /fp:precise /Zc:wchar_t /Zc:forScope /Zc:inline /Fo"DEBUG\\" /Fd"DEBUG\ENGINE.PDB" /Gd /TP /analyze- D:\GITPROJECT\STDIO_GAME\LIB\STDIO-ENGINE\SRC\SPRITE.CPP
^D:\GITPROJECT\STDIO_GAME\LIB\STDIO-ENGINE\SRC\TEXT.CPP
/c /I"C:\PROGRAM FILES (X86)\VISUAL LEAK DETECTOR\INCLUDE" /ZI /nologo /W3 /WX- /diagnostics:classic /sdl /Od /Oy- /D _MBCS /Gm /EHsc /RTC1 /MDd /GS /fp:precise /Zc:wchar_t /Zc:forScope /Zc:inline /Fo"DEBUG\\" /Fd"DEBUG\ENGINE.PDB" /Gd /TP /analyze- D:\GITPROJECT\STDIO_GAME\LIB\STDIO-ENGINE\SRC\TEXT.CPP
^D:\GITPROJECT\STDIO_GAME\LIB\STDIO-ENGINE\SRC\TEXTURE.CPP
/c /I"C:\PROGRAM FILES (X86)\VISUAL LEAK DETECTOR\INCLUDE" /ZI /nologo /W3 /WX- /diagnostics:classic /sdl /Od /Oy- /D _MBCS /Gm /EHsc /RTC1 /MDd /GS /fp:precise /Zc:wchar_t /Zc:forScope /Zc:inline /Fo"DEBUG\\" /Fd"DEBUG\ENGINE.PDB" /Gd /TP /analyze- D:\GITPROJECT\STDIO_GAME\LIB\STDIO-ENGINE\SRC\TEXTURE.CPP
^D:\GITPROJECT\STDIO_GAME\LIB\STDIO-ENGINE\SRC\TILEMAP.CPP
/c /I"C:\PROGRAM FILES (X86)\VISUAL LEAK DETECTOR\INCLUDE" /ZI /nologo /W3 /WX- /diagnostics:classic /sdl /Od /Oy- /D _MBCS /Gm /EHsc /RTC1 /MDd /GS /fp:precise /Zc:wchar_t /Zc:forScope /Zc:inline /Fo"DEBUG\\" /Fd"DEBUG\ENGINE.PDB" /Gd /TP /analyze- D:\GITPROJECT\STDIO_GAME\LIB\STDIO-ENGINE\SRC\TILEMAP.CPP
^D:\PROJECTS\STDIO_GAME\LIB\STDIO-ENGINE\SRC\ANIMATION.CPP
/c /I"C:\PROGRAM FILES (X86)\VISUAL LEAK DETECTOR\INCLUDE" /ZI /nologo /W3 /WX- /diagnostics:classic /sdl /Od /Oy- /D _MBCS /Gm /EHsc /RTC1 /MDd /GS /fp:precise /Zc:wchar_t /Zc:forScope /Zc:inline /Fo"DEBUG\\" /Fd"DEBUG\ENGINE.PDB" /Gd /TP /analyze- D:\PROJECTS\STDIO_GAME\LIB\STDIO-ENGINE\SRC\ANIMATION.CPP
^D:\PROJECTS\STDIO_GAME\LIB\STDIO-ENGINE\SRC\APPLICATION.CPP
/c /I"C:\PROGRAM FILES (X86)\VISUAL LEAK DETECTOR\INCLUDE" /ZI /nologo /W3 /WX- /diagnostics:classic /sdl /Od /Oy- /D _MBCS /Gm /EHsc /RTC1 /MDd /GS /fp:precise /Zc:wchar_t /Zc:forScope /Zc:inline /Fo"DEBUG\\" /Fd"DEBUG\ENGINE.PDB" /Gd /TP /analyze- D:\PROJECTS\STDIO_GAME\LIB\STDIO-ENGINE\SRC\APPLICATION.CPP
^D:\PROJECTS\STDIO_GAME\LIB\STDIO-ENGINE\SRC\AUDIOMANAGER.CPP
/c /I"C:\PROGRAM FILES (X86)\VISUAL LEAK DETECTOR\INCLUDE" /ZI /nologo /W3 /WX- /diagnostics:classic /sdl /Od /Oy- /D _MBCS /Gm /EHsc /RTC1 /MDd /GS /fp:precise /Zc:wchar_t /Zc:forScope /Zc:inline /Fo"DEBUG\\" /Fd"DEBUG\ENGINE.PDB" /Gd /TP /analyze- D:\PROJECTS\STDIO_GAME\LIB\STDIO-ENGINE\SRC\AUDIOMANAGER.CPP
^D:\PROJECTS\STDIO_GAME\LIB\STDIO-ENGINE\SRC\BUTTON.CPP
/c /I"C:\PROGRAM FILES (X86)\VISUAL LEAK DETECTOR\INCLUDE" /ZI /nologo /W3 /WX- /diagnostics:classic /sdl /Od /Oy- /D _MBCS /Gm /EHsc /RTC1 /MDd /GS /fp:precise /Zc:wchar_t /Zc:forScope /Zc:inline /Fo"DEBUG\\" /Fd"DEBUG\ENGINE.PDB" /Gd /TP /analyze- D:\PROJECTS\STDIO_GAME\LIB\STDIO-ENGINE\SRC\BUTTON.CPP
^D:\PROJECTS\STDIO_GAME\LIB\STDIO-ENGINE\SRC\CAMERAMANAGER.CPP
/c /I"C:\PROGRAM FILES (X86)\VISUAL LEAK DETECTOR\INCLUDE" /ZI /nologo /W3 /WX- /diagnostics:classic /sdl /Od /Oy- /D _MBCS /Gm /EHsc /RTC1 /MDd /GS /fp:precise /Zc:wchar_t /Zc:forScope /Zc:inline /Fo"DEBUG\\" /Fd"DEBUG\ENGINE.PDB" /Gd /TP /analyze- D:\PROJECTS\STDIO_GAME\LIB\STDIO-ENGINE\SRC\CAMERAMANAGER.CPP
^D:\PROJECTS\STDIO_GAME\LIB\STDIO-ENGINE\SRC\GRAPHICMANAGER.CPP
/c /I"C:\PROGRAM FILES (X86)\VISUAL LEAK DETECTOR\INCLUDE" /ZI /nologo /W3 /WX- /diagnostics:classic /sdl /Od /Oy- /D _MBCS /Gm /EHsc /RTC1 /MDd /GS /fp:precise /Zc:wchar_t /Zc:forScope /Zc:inline /Fo"DEBUG\\" /Fd"DEBUG\ENGINE.PDB" /Gd /TP /analyze- D:\PROJECTS\STDIO_GAME\LIB\STDIO-ENGINE\SRC\GRAPHICMANAGER.CPP
^D:\PROJECTS\STDIO_GAME\LIB\STDIO-ENGINE\SRC\INPUTMANAGER.CPP
/c /I"C:\PROGRAM FILES (X86)\VISUAL LEAK DETECTOR\INCLUDE" /ZI /nologo /W3 /WX- /diagnostics:classic /sdl /Od /Oy- /D _MBCS /Gm /EHsc /RTC1 /MDd /GS /fp:precise /Zc:wchar_t /Zc:forScope /Zc:inline /Fo"DEBUG\\" /Fd"DEBUG\ENGINE.PDB" /Gd /TP /analyze- D:\PROJECTS\STDIO_GAME\LIB\STDIO-ENGINE\SRC\INPUTMANAGER.CPP
^D:\PROJECTS\STDIO_GAME\LIB\STDIO-ENGINE\SRC\SCENE.CPP
/c /I"C:\PROGRAM FILES (X86)\VISUAL LEAK DETECTOR\INCLUDE" /ZI /nologo /W3 /WX- /diagnostics:classic /sdl /Od /Oy- /D _MBCS /Gm /EHsc /RTC1 /MDd /GS /fp:precise /Zc:wchar_t /Zc:forScope /Zc:inline /Fo"DEBUG\\" /Fd"DEBUG\ENGINE.PDB" /Gd /TP /analyze- D:\PROJECTS\STDIO_GAME\LIB\STDIO-ENGINE\SRC\SCENE.CPP
^D:\PROJECTS\STDIO_GAME\LIB\STDIO-ENGINE\SRC\SCENEMANAGER.CPP
/c /I"C:\PROGRAM FILES (X86)\VISUAL LEAK DETECTOR\INCLUDE" /ZI /nologo /W3 /WX- /diagnostics:classic /sdl /Od /Oy- /D _MBCS /Gm /EHsc /RTC1 /MDd /GS /fp:precise /Zc:wchar_t /Zc:forScope /Zc:inline /Fo"DEBUG\\" /Fd"DEBUG\ENGINE.PDB" /Gd /TP /analyze- D:\PROJECTS\STDIO_GAME\LIB\STDIO-ENGINE\SRC\SCENEMANAGER.CPP
^D:\PROJECTS\STDIO_GAME\LIB\STDIO-ENGINE\SRC\SPRITE.CPP
/c /I"C:\PROGRAM FILES (X86)\VISUAL LEAK DETECTOR\INCLUDE" /ZI /nologo /W3 /WX- /diagnostics:classic /sdl /Od /Oy- /D _MBCS /Gm /EHsc /RTC1 /MDd /GS /fp:precise /Zc:wchar_t /Zc:forScope /Zc:inline /Fo"DEBUG\\" /Fd"DEBUG\ENGINE.PDB" /Gd /TP /analyze- D:\PROJECTS\STDIO_GAME\LIB\STDIO-ENGINE\SRC\SPRITE.CPP
^D:\PROJECTS\STDIO_GAME\LIB\STDIO-ENGINE\SRC\TEXT.CPP
/c /I"C:\PROGRAM FILES (X86)\VISUAL LEAK DETECTOR\INCLUDE" /ZI /nologo /W3 /WX- /diagnostics:classic /sdl /Od /Oy- /D _MBCS /Gm /EHsc /RTC1 /MDd /GS /fp:precise /Zc:wchar_t /Zc:forScope /Zc:inline /Fo"DEBUG\\" /Fd"DEBUG\ENGINE.PDB" /Gd /TP /analyze- D:\PROJECTS\STDIO_GAME\LIB\STDIO-ENGINE\SRC\TEXT.CPP
^D:\PROJECTS\STDIO_GAME\LIB\STDIO-ENGINE\SRC\TEXTURE.CPP
/c /I"C:\PROGRAM FILES (X86)\VISUAL LEAK DETECTOR\INCLUDE" /ZI /nologo /W3 /WX- /diagnostics:classic /sdl /Od /Oy- /D _MBCS /Gm /EHsc /RTC1 /MDd /GS /fp:precise /Zc:wchar_t /Zc:forScope /Zc:inline /Fo"DEBUG\\" /Fd"DEBUG\ENGINE.PDB" /Gd /TP /analyze- D:\PROJECTS\STDIO_GAME\LIB\STDIO-ENGINE\SRC\TEXTURE.CPP
^D:\PROJECTS\STDIO_GAME\LIB\STDIO-ENGINE\SRC\TILEMAP.CPP
/c /I"C:\PROGRAM FILES (X86)\VISUAL LEAK DETECTOR\INCLUDE" /ZI /nologo /W3 /WX- /diagnostics:classic /sdl /Od /Oy- /D _MBCS /Gm /EHsc /RTC1 /MDd /GS /fp:precise /Zc:wchar_t /Zc:forScope /Zc:inline /Fo"DEBUG\\" /Fd"DEBUG\ENGINE.PDB" /Gd /TP /analyze- D:\PROJECTS\STDIO_GAME\LIB\STDIO-ENGINE\SRC\TILEMAP.CPP
